11:12:31 Environment | SparkleShare 3.38.0
11:12:31 Environment | Git LFS 3.0.2
11:12:31 Environment | Git 2.35.0
11:12:31 Environment | GNOME (Linux 5.16.2.1)
11:12:31 Cmd | gio set "/home/guoyi/SparkleShare" metadata::custom-icon-name org.sparkleshare.SparkleShare
11:12:31 Environment | GTK+ 3.24.31
11:12:31 Environment | Status Icon: GtkStatusIcon
11:12:31 /home/guoyi/SparkleShare/gitlab.com/jrnl | Initializing...
11:12:31 Cmd | jrnl | git config core.ignorecase false
11:12:38 Cmd | jrnl | git config remote.origin.url "ssh://git@gitlab.com/guoe2005/jrnl.git"
11:12:45 Cmd | jrnl | git config core.sshCommand ssh -i /home/guoyi/.config/org.sparkleshare.SparkleShare/ssh/2022-01-25_18h08.key -o UserKnownHostsFile=/home/guoyi/.config/org.sparkleshare.SparkleShare/ssh/known_hosts -o IdentitiesOnly=yes -o PasswordAuthentication=no -F /dev/null
11:13:06 Cmd | chmod 700 /home/guoyi/SparkleShare/gitlab.com/jrnl/.git/hooks/pre-push
11:13:17 Cmd | jrnl | git --no-pager log --since=1.month --name-status --date=iso --find-renames --no-merges --no-color
11:13:32 Git | jrnl | Checking for remote changes...
11:13:32 Cmd | jrnl | git rev-parse HEAD
11:13:32 Cmd | jrnl | git config core.ignorecase true
11:13:51 Cmd | jrnl | git config core.ignorecase false
11:14:06 Cmd | jrnl | git rev-parse --abbrev-ref HEAD
11:14:28 Cmd | jrnl | git ls-remote --heads --exit-code origin main
11:14:33 Git | jrnl | No remote changes, local+remote: ce00fd420d78a263ddb999925a4e3505e417e257
11:14:33 Cmd | jrnl | git status --porcelain
11:17:34 Git | jrnl | Checking for remote changes...
11:17:34 Cmd | jrnl | git rev-parse HEAD
11:17:45 Cmd | jrnl | git ls-remote --heads --exit-code origin main
11:18:27 Git | jrnl | No remote changes, local+remote: ce00fd420d78a263ddb999925a4e3505e417e257
