14:22:55 Environment | SparkleShare 3.38.0
14:22:55 Environment | Git LFS 3.0.2
14:22:55 Environment | Git 2.35.0
14:22:55 Environment | GNOME (Linux 5.16.2.1)
14:22:55 Cmd | gio set "/home/guoyi/SparkleShare" metadata::custom-icon-name org.sparkleshare.SparkleShare
14:22:55 Environment | GTK+ 3.24.31
14:22:55 Environment | Status Icon: GtkStatusIcon
14:22:56 /home/guoyi/SparkleShare/gitlab.com/jrnl | Initializing...
14:22:56 Cmd | jrnl | git config core.ignorecase false
14:23:12 Cmd | jrnl | git config remote.origin.url "ssh://git@gitlab.com/guoe2005/jrnl.git"
14:23:19 Cmd | jrnl | git config core.sshCommand ssh -i /home/guoyi/.config/org.sparkleshare.SparkleShare/ssh/2022-01-25_18h08.key -o UserKnownHostsFile=/home/guoyi/.config/org.sparkleshare.SparkleShare/ssh/known_hosts -o IdentitiesOnly=yes -o PasswordAuthentication=no -F /dev/null
