13:47:08 Environment | SparkleShare 3.38.0
13:47:08 Environment | Git LFS 3.0.2
13:47:08 Environment | Git 2.35.0
13:47:08 Environment | GNOME (Linux 5.16.2.1)
13:47:08 Cmd | gio set "/home/guoyi/SparkleShare" metadata::custom-icon-name org.sparkleshare.SparkleShare
13:47:08 Environment | GTK+ 3.24.31
13:47:08 Environment | Status Icon: GtkStatusIcon
13:47:09 /home/guoyi/SparkleShare/gitlab.com/jrnl | Initializing...
13:47:09 Cmd | jrnl | git config core.ignorecase false
13:47:16 Cmd | jrnl | git config remote.origin.url "ssh://git@gitlab.com/guoe2005/jrnl.git"
13:47:22 Cmd | jrnl | git config core.sshCommand ssh -i /home/guoyi/.config/org.sparkleshare.SparkleShare/ssh/2022-01-25_18h08.key -o UserKnownHostsFile=/home/guoyi/.config/org.sparkleshare.SparkleShare/ssh/known_hosts -o IdentitiesOnly=yes -o PasswordAuthentication=no -F /dev/null
13:47:32 Cmd | chmod 700 /home/guoyi/SparkleShare/gitlab.com/jrnl/.git/hooks/pre-push
13:47:40 Cmd | jrnl | git --no-pager log --since=1.month --name-status --date=iso --find-renames --no-merges --no-color
13:47:48 Git | jrnl | Checking for remote changes...
13:47:48 Cmd | jrnl | git rev-parse HEAD
13:47:49 Cmd | jrnl | git config core.ignorecase true
13:48:01 Cmd | jrnl | git config core.ignorecase false
13:48:07 Cmd | jrnl | git rev-parse --abbrev-ref HEAD
13:48:09 Cmd | jrnl | git ls-remote --heads --exit-code origin main
13:48:14 Git | jrnl | No remote changes, local+remote: 8b607e01f3968fc930f82b72738a03a99d6ccbdd
13:48:14 Cmd | jrnl | git status --porcelain
13:52:09 Git | jrnl | Checking for remote changes...
13:52:09 Cmd | jrnl | git rev-parse HEAD
13:52:25 Cmd | jrnl | git ls-remote --heads --exit-code origin main
13:53:26 Git | jrnl | No remote changes, local+remote: 8b607e01f3968fc930f82b72738a03a99d6ccbdd
13:57:09 Git | jrnl | Checking for remote changes...
13:57:09 Cmd | jrnl | git rev-parse HEAD
13:57:40 Cmd | jrnl | git ls-remote --heads --exit-code origin main
14:02:09 Git | jrnl | Checking for remote changes...
14:02:09 Cmd | jrnl | git rev-parse HEAD
14:02:55 Cmd | jrnl | git ls-remote --heads --exit-code origin main
14:07:09 Git | jrnl | Checking for remote changes...
14:07:09 Cmd | jrnl | git rev-parse HEAD
14:07:10 Cmd | jrnl | git ls-remote --heads --exit-code origin main
14:08:11 Git | jrnl | No remote changes, local+remote: 8b607e01f3968fc930f82b72738a03a99d6ccbdd
14:12:09 Git | jrnl | Checking for remote changes...
14:12:09 Cmd | jrnl | git rev-parse HEAD
14:12:25 Cmd | jrnl | git ls-remote --heads --exit-code origin main
14:17:09 Git | jrnl | Checking for remote changes...
14:17:09 Cmd | jrnl | git rev-parse HEAD
14:17:45 Cmd | jrnl | git ls-remote --heads --exit-code origin main
14:18:46 Git | jrnl | No remote changes, local+remote: 8b607e01f3968fc930f82b72738a03a99d6ccbdd
14:22:09 Git | jrnl | Checking for remote changes...
14:22:09 Cmd | jrnl | git rev-parse HEAD
