14:23:38 Environment | SparkleShare 3.38.0
14:23:38 Environment | Git LFS 3.0.2
14:23:38 Environment | Git 2.35.0
14:23:38 Environment | GNOME (Linux 5.16.2.1)
14:23:38 Cmd | gio set "/home/guoyi/SparkleShare" metadata::custom-icon-name org.sparkleshare.SparkleShare
14:23:39 Environment | GTK+ 3.24.31
14:23:39 Environment | Status Icon: GtkStatusIcon
14:23:39 /home/guoyi/SparkleShare/gitlab.com/jrnl | Initializing...
14:23:39 Cmd | jrnl | git config core.ignorecase false
14:23:48 Cmd | jrnl | git config remote.origin.url "ssh://git@gitlab.com/guoe2005/jrnl.git"
14:23:57 Cmd | jrnl | git config core.sshCommand ssh -i /home/guoyi/.config/org.sparkleshare.SparkleShare/ssh/2022-01-25_18h08.key -o UserKnownHostsFile=/home/guoyi/.config/org.sparkleshare.SparkleShare/ssh/known_hosts -o IdentitiesOnly=yes -o PasswordAuthentication=no -F /dev/null
14:24:10 Cmd | chmod 700 /home/guoyi/SparkleShare/gitlab.com/jrnl/.git/hooks/pre-push
14:24:12 Cmd | jrnl | git --no-pager log --since=1.month --name-status --date=iso --find-renames --no-merges --no-color
14:24:19 Git | jrnl | Checking for remote changes...
14:24:19 Cmd | jrnl | git rev-parse HEAD
14:24:20 Cmd | jrnl | git config core.ignorecase true
14:24:30 Cmd | jrnl | git config core.ignorecase false
14:24:40 Cmd | jrnl | git rev-parse --abbrev-ref HEAD
14:24:44 Cmd | jrnl | git ls-remote --heads --exit-code origin main
14:24:57 Git | jrnl | No remote changes, local+remote: 8b607e01f3968fc930f82b72738a03a99d6ccbdd
14:24:57 Cmd | jrnl | git status --porcelain
14:28:40 Git | jrnl | Checking for remote changes...
14:28:40 Cmd | jrnl | git rev-parse HEAD
14:28:56 Cmd | jrnl | git ls-remote --heads --exit-code origin main
14:29:22 Git | jrnl | No remote changes, local+remote: 8b607e01f3968fc930f82b72738a03a99d6ccbdd
14:33:40 Git | jrnl | Checking for remote changes...
14:33:40 Cmd | jrnl | git rev-parse HEAD
14:34:16 Cmd | jrnl | git ls-remote --heads --exit-code origin main
14:34:51 Git | jrnl | No remote changes, local+remote: 8b607e01f3968fc930f82b72738a03a99d6ccbdd
14:38:40 Git | jrnl | Checking for remote changes...
14:38:40 Cmd | jrnl | git rev-parse HEAD
14:39:36 Cmd | jrnl | git ls-remote --heads --exit-code origin main
14:40:30 Git | jrnl | No remote changes, local+remote: 8b607e01f3968fc930f82b72738a03a99d6ccbdd
14:43:40 Git | jrnl | Checking for remote changes...
14:43:40 Cmd | jrnl | git rev-parse HEAD
14:43:51 Cmd | jrnl | git ls-remote --heads --exit-code origin main
14:44:52 Git | jrnl | No remote changes, local+remote: 8b607e01f3968fc930f82b72738a03a99d6ccbdd
14:48:40 Git | jrnl | Checking for remote changes...
14:48:40 Cmd | jrnl | git rev-parse HEAD
